…
logit_tune_pra <- logistic_reg() %>%
  set_engine("glm") %>%
  set_mode("classification")

logit_wflow <- workflow() %>%
  add_recipe(preprocess) %>%
  add_model(logit_tune_pra)

fitted_wflow <- fit(logit_wflow, data = dat_train)

tidy(fitted_wflow)
```

    ## # A tibble: 24 x 5
    ##    term                         estimate std.error statistic   p.value
    ##    <chr>                           <dbl>     <dbl>     <dbl>     <dbl>
    ##  1 (Intercept)                   1.72       0.0604   28.5    7.96e-179
    ##  2 gender__Female               -0.00839    0.0363   -0.231  8.17e-  1
    ##  3 Partner__Yes                 -0.00270    0.0435   -0.0620 9.51e-  1
    ##  4 Dependents__Yes               0.0356     0.0457    0.779  4.36e-  1
    ##  5 PhoneService__Yes            -0.0505     0.218    -0.232  8.17e-  1
    ##  6 MultipleLines__Yes           -0.226      0.0986   -2.29   2.19e-  2
    ##  7 InternetService__DSL         -0.867      0.431    -2.01   4.43e-  2
    ##  8 InternetService__Fiber_optic -1.76       0.892    -1.97   4.86e-  2
    ##  9 OnlineSecurity__Yes           0.0697     0.0905    0.770  4.41e-  1
    ## 10 OnlineBackup__Yes            -0.0127     0.0939   -0.135  8.93e-  1
    ## # ... with 14 more rows
…
